<svg width="14" height="8" viewBox="0 0 14 8" fill="none" xmlns="http://www.w3.org/2000/svg">
    <path d="M13.3536 4.35355C13.5488 4.15829 13.5488 3.84171 13.3536 3.64645L10.1716 0.464467C9.97631 0.269205 9.65973 0.269205 9.46447 0.464467C9.2692 0.659729 9.2692 0.976312 9.46447 1.17157L12.2929 4L9.46446 6.82843C9.2692 7.02369 9.2692 7.34027 9.46446 7.53553C9.65973 7.7308 9.97631 7.7308 10.1716 7.53553L13.3536 4.35355ZM-4.37114e-08 4.5L13 4.5L13 3.5L4.37114e-08 3.5L-4.37114e-08 4.5Z" fill="#4F4F4F"/>
</svg>
